%YAML 1.1
%TAG !u! tag:unity3d.com,2011:
--- !u!21 &2100000
Material:
  serializedVersion: 6
  m_ObjectHideFlags: 0
  m_PrefabParentObject: {fileID: 0}
  m_PrefabInternal: {fileID: 0}
  m_Name: MarchingCubeFromVoxelData
  m_Shader: {fileID: 4800000, guid: c96ecb666dadec848961a9c656f7e7a6, type: 3}
  m_ShaderKeywords: 
  m_LightmapFlags: 4
  m_EnableInstancingVariants: 0
  m_DoubleSidedGI: 0
  m_CustomRenderQueue: -1
  stringTagMap: {}
  disabledShaderPasses: []
  m_SavedProperties:
    serializedVersion: 3
    m_TexEnvs:
    - _BackDepth:
        m_Texture: {fileID: 8400000, guid: b32cdb1ed3164b64fb6c372a0b98bfcf, type: 2}
        m_Scale: {x: 1, y: 1}
        m_Offset: {x: 0, y: 0}
    - _BackTex:
        m_Texture: {fileID: 8400000, guid: 8439ed18546b4be41917c2b524546366, type: 2}
        m_Scale: {x: 1, y: 1}
        m_Offset: {x: 0, y: 0}
    - _BottomDepth:
        m_Texture: {fileID: 8400000, guid: 153266ceb2ba3aa42858fd18b26f6d24, type: 2}
        m_Scale: {x: 1, y: 1}
        m_Offset: {x: 0, y: 0}
    - _BottomTex:
        m_Texture: {fileID: 8400000, guid: 31ccbfa007f097e4fa26884d596780ff, type: 2}
        m_Scale: {x: 1, y: 1}
        m_Offset: {x: 0, y: 0}
    - _BumpMap:
        m_Texture: {fileID: 0}
        m_Scale: {x: 1, y: 1}
        m_Offset: {x: 0, y: 0}
    - _BumpTex:
        m_Texture: {fileID: 0}
        m_Scale: {x: 1, y: 1}
        m_Offset: {x: 0, y: 0}
    - _CustomRenderTexture:
        m_Texture: {fileID: 8600000, guid: 618d2cd78f1378d4b8105e109ceb0af6, type: 2}
        m_Scale: {x: 1, y: 1}
        m_Offset: {x: 0, y: 0}
    - _DetailAlbedoMap:
        m_Texture: {fileID: 0}
        m_Scale: {x: 1, y: 1}
        m_Offset: {x: 0, y: 0}
    - _DetailMask:
        m_Texture: {fileID: 0}
        m_Scale: {x: 1, y: 1}
        m_Offset: {x: 0, y: 0}
    - _DetailNormalMap:
        m_Texture: {fileID: 0}
        m_Scale: {x: 1, y: 1}
        m_Offset: {x: 0, y: 0}
    - _EmissionMap:
        m_Texture: {fileID: 0}
        m_Scale: {x: 1, y: 1}
        m_Offset: {x: 0, y: 0}
    - _FrontDepth:
        m_Texture: {fileID: 8400000, guid: 4a4a32b470f1b024d94acb239b067266, type: 2}
        m_Scale: {x: 1, y: 1}
        m_Offset: {x: 0, y: 0}
    - _FrontTex:
        m_Texture: {fileID: 8400000, guid: c01682cdde64def46a4aec438edcc21d, type: 2}
        m_Scale: {x: 1, y: 1}
        m_Offset: {x: 0, y: 0}
    - _LeftDepth:
        m_Texture: {fileID: 8400000, guid: d6564303313bc3f42b27276d6168659a, type: 2}
        m_Scale: {x: 1, y: 1}
        m_Offset: {x: 0, y: 0}
    - _LeftTex:
        m_Texture: {fileID: 8400000, guid: d3c7bd0f05deaba42825509b3c1ac285, type: 2}
        m_Scale: {x: 1, y: 1}
        m_Offset: {x: 0, y: 0}
    - _MainTex:
        m_Texture: {fileID: 0}
        m_Scale: {x: 1, y: 1}
        m_Offset: {x: 0, y: 0}
    - _MarchingCubeTex:
        m_Texture: {fileID: 2800000, guid: 6996d1a80f87b414188fcdfdbb654b12, type: 3}
        m_Scale: {x: 1, y: 1}
        m_Offset: {x: 0, y: 0}
    - _MetallicGlossMap:
        m_Texture: {fileID: 0}
        m_Scale: {x: 1, y: 1}
        m_Offset: {x: 0, y: 0}
    - _OcclusionMap:
        m_Texture: {fileID: 0}
        m_Scale: {x: 1, y: 1}
        m_Offset: {x: 0, y: 0}
    - _ParallaxMap:
        m_Texture: {fileID: 0}
        m_Scale: {x: 1, y: 1}
        m_Offset: {x: 0, y: 0}
    - _PetrifyMask:
        m_Texture: {fileID: 2800000, guid: d2c4e1ad60cddc441b35f2e00930a5ac, type: 3}
        m_Scale: {x: 1, y: 1}
        m_Offset: {x: 0, y: 0}
    - _RightDepth:
        m_Texture: {fileID: 8400000, guid: 4a20834728a78ec46b63efaffe77fd72, type: 2}
        m_Scale: {x: 1, y: 1}
        m_Offset: {x: 0, y: 0}
    - _RightTex:
        m_Texture: {fileID: 8400000, guid: 0ab5c3e0b619af249843e36bdfc288df, type: 2}
        m_Scale: {x: 1, y: 1}
        m_Offset: {x: 0, y: 0}
    - _StoneBumpTex:
        m_Texture: {fileID: 2800000, guid: b918457e0ab23bf488a5c2fdae0b97b8, type: 3}
        m_Scale: {x: 1, y: 1}
        m_Offset: {x: 0, y: 0}
    - _StoneTex:
        m_Texture: {fileID: 2800000, guid: e9a6f4ed41f8c6342a4deabb2355f44a, type: 3}
        m_Scale: {x: 1, y: 1}
        m_Offset: {x: 0, y: 0}
    - _TopDepth:
        m_Texture: {fileID: 8400000, guid: 2a9d36c9dad80d44c87474708e06fb71, type: 2}
        m_Scale: {x: 1, y: 1}
        m_Offset: {x: 0, y: 0}
    - _TopTex:
        m_Texture: {fileID: 8400000, guid: f083ed966af454445ae065e37f53debc, type: 2}
        m_Scale: {x: 1, y: 1}
        m_Offset: {x: 0, y: 0}
    m_Floats:
    - _BoundaryBlurAmount: 25
    - _BumpScale: 1
    - _Cutoff: 0.5
    - _Depth: 128
    - _DetailNormalMapScale: 1
    - _DstBlend: 0
    - _EmissionIntensity: 1
    - _GlossMapScale: 1
    - _Glossiness: 0.5
    - _GlossyReflections: 1
    - _Height: 128
    - _IsDisplaySurface: 0
    - _Metallic: 0.657
    - _Mode: 0
    - _OcclusionStrength: 1
    - _Parallax: 0.02
    - _PetrifyAvailable: 0
    - _PetrifyProgress: 0
    - _PetrifyRate: 0.2
    - _SampleScale: 1
    - _Scale: 0.03125
    - _SegmentNum: 64
    - _SmoothnessTextureChannel: 0
    - _SpecularHighlights: 1
    - _SpecularPower: 32
    - _SplitNum: 1
    - _SrcBlend: 1
    - _Threashold: 0.5
    - _UVSec: 0
    - _Width: 128
    - _ZWrite: 1
    m_Colors:
    - _Color: {r: 1, g: 1, b: 1, a: 1}
    - _DiffuseColor: {r: 0, g: 1, b: 0.50344825, a: 1}
    - _EmissionColor: {r: 0, g: 0, b: 0, a: 1}
    - _SpecularColor: {r: 0.19117647, g: 0.16843307, b: 0.09418253, a: 1}
